{
  "name": "Test app",
  "version": "1.2.3",
  "description": "This is a random test app",
  "configure": {
    "context": "configure",
    "port": 80
  },
  "compute": {
    "context": "compute",
    "inputFileTypes": ["FASTQ", "OTHER"],
    "port": 80
  },
  "visualize": {
    "context": "visualize",
    "port": 80
  }
}
